[
  {
    "ID": 1,
    "Name": "Automoton",
    "Rarity": 0,
    "Description": "Well, at least it can fight.",
    "Sprite": "card_automaton.png",
    "Value": 1,
    "CardClass": 0
  },
  {
    "ID": 2,
    "Name": "Automoton C",
    "Rarity": 0,
    "Description": "An upgrade over the base \n model for sure.",
    "Sprite": "card_automaton_c.png",
    "Value": 2,
    "CardClass": 0
  },
  {
    "ID": 3,
    "Name": "Bloodwolf",
    "Rarity": 0,
    "Description": "That's a good boy.",
    "Sprite": "card_bloodwolf.png",
    "Value": 2,
    "CardClass": 0
  },
  {
    "ID": 4,
    "Name": "Celestial",
    "Rarity": 0,
    "Description": "A being of divine origins.",
    "Sprite": "card_celestial.png",
    "Value": 2,
    "CardClass": 0
  },
  {
    "ID": 5,
    "Name": "Gladius",
    "Rarity": 0,
    "Description": "A machine built\npurely for combat",
    "Sprite": "card_gladius.png",
    "Value": 3,
    "CardClass": 0
  },
  {
    "ID": 6,
    "Name": "Mechasnake",
    "Rarity": 0,
    "Description": "Look out it's a snake\n AND a knife!.",
    "Sprite": "card_mechasnake.png",
    "Value": 1,
    "CardClass": 0
  },
  {
    "ID": 7,
    "Name": "Lariatt",
    "Rarity": 0,
    "Description": "A dark fairy who collects\nsouls from the\nunfortunate.",
    "Sprite": "card_lariatt.png",
    "Value": 3,
    "CardClass": 0
  },
  {
    "ID": 8,
    "Name": "Nature Linker",
    "Rarity": 0,
    "Description": "An elf with a\nconnection to nature.",
    "Sprite": "card_nature_linker.png",
    "Value": 1,
    "CardClass": 0
  },
  {
    "ID": 9,
    "Name": "Nightmare Breakfast",
    "Rarity": 0,
    "Description": "This breakfast eats YOU.",
    "Sprite": "card_nightmare_breakfast.png",
    "Value": 1,
    "CardClass": 0
  },
  {
    "ID": 10,
    "Name": "Rogue",
    "Rarity": 0,
    "Description": "You're dead before\nyou know it.",
    "Sprite": "card_rogue.png",
    "Value": 2,
    "CardClass": 0
  },
  {
    "ID": 11,
    "Name": "Succubus",
    "Rarity": 0,
    "Description": "Look, but don't touch.",
    "Sprite": "card_succubus.png",
    "Value": 1,
    "CardClass": 0
  },
  {
    "ID": 12,
    "Name": "Tribal Elf Apprentice",
    "Rarity": 0,
    "Description": "An elf with a lot to learn.",
    "Sprite": "card_tribal_elf_apprentice.png",
    "Value": 1,
    "CardClass": 0
  },
  {
    "ID": 13,
    "Name": "Tribal Elf Master",
    "Rarity": 0,
    "Description": "Wise in many ways.",
    "Sprite": "card_tribal_elf_master.png",
    "Value": 3,
    "CardClass": 0
  },
  {
    "ID": 14,
    "Name": "Undeen of the Sea",
    "Rarity": 0,
    "Description": "Queen of the mermaids,\n she defends her kingdom\nfrom all.",
    "Sprite": "card_undeen.png",
    "Value": 3,
    "CardClass": 0
  },
  {
    "ID": 15,
    "Name": "Ancient Archer",
    "Rarity": 0,
    "Description": "An ancient artform\nmastered.",
    "Sprite": "card_ancient_archer.png",
    "Value": 1,
    "CardClass": 1
  },
  {
    "ID": 16,
    "Name": "Ancient Mage",
    "Rarity": 0,
    "Description": "The power of the\nancients in her hands.",
    "Sprite": "card_ancient_mage.png",
    "Value": 2,
    "CardClass": 1
  },
  {
    "ID": 17,
    "Name": "Arriette",
    "Rarity": 0,
    "Description": "Master of Archers\nfor the Kingdom.",
    "Sprite": "card_arriette.png",
    "Value": 2,
    "CardClass": 1
  },
  {
    "ID": 18,
    "Name": "Blood Wizard",
    "Rarity": 0,
    "Description": "I think you mean\nOUR blood.",
    "Sprite": "card_blood_wizard.png",
    "Value": 2,
    "CardClass": 1
  },
  {
    "ID": 19,
    "Name": "Dancer",
    "Rarity": 0,
    "Description": "She's hurricane in all\nkinds of weather.",
    "Sprite": "card_dancer.png",
    "Value": 1,
    "CardClass": 1
  },
  {
    "ID": 20,
    "Name": "Dark Wizard",
    "Rarity": 0,
    "Description": "The Black Magics\nare his domain.",
    "Sprite": "card_dark_wizard.png",
    "Value": 1,
    "CardClass": 1
  },
  {
    "ID": 21,
    "Name": "Dryad Archer",
    "Rarity": 0,
    "Description": "This plant has thorns,\nhere comes one now!",
    "Sprite": "card_dryad_archer.png",
    "Value": 1,
    "CardClass": 1
  },
  {
    "ID": 22,
    "Name": "Dryad Mage",
    "Rarity": 0,
    "Description": "Attuned to nature.",
    "Sprite": "card_dryad_mage.png",
    "Value": 2,
    "CardClass": 1
  },
  {
    "ID": 23,
    "Name": "Earth Fairy",
    "Rarity": 0,
    "Description": "Pretty cute,\nbut don't make her mad.",
    "Sprite": "card_earth_fairy.png",
    "Value": 1,
    "CardClass": 1
  },
  {
    "ID": 24,
    "Name": "Elemental Goddess",
    "Rarity": 0,
    "Description": "Goddess over the\nelemental realm.",
    "Sprite": "card_elemental_goddess.png",
    "Value": 2,
    "CardClass": 1
  },
  {
    "ID": 25,
    "Name": "Elf Archer",
    "Rarity": 0,
    "Description": "An elf with a bow, classic.",
    "Sprite": "card_elf_archer.png",
    "Value": 1,
    "CardClass": 1
  },
  {
    "ID": 26,
    "Name": "Forest Fairy",
    "Rarity": 0,
    "Description": "A fairy of the forest.",
    "Sprite": "card_elf_archer.png",
    "Value": 1,
    "CardClass": 1
  },
  {
    "ID": 27,
    "Name": "Lich King",
    "Rarity": 0,
    "Description": "The undead are\nat his command.",
    "Sprite": "card_lich_king.png",
    "Value": 2,
    "CardClass": 1
  },
  {
    "ID": 28,
    "Name": "Wind Titan",
    "Rarity": 0,
    "Description": "Do I feel a breeze?",
    "Sprite": "card_wind_titan.png",
    "Value": 2,
    "CardClass": 1
  },
  {
    "ID": 29,
    "Name": "Witch",
    "Rarity": 0,
    "Description": "Anyone got some\neye of newt?",
    "Sprite": "card_witch.png",
    "Value": 1,
    "CardClass": 1
  },
  {
    "ID": 30,
    "Name": "Continental Turtle",
    "Rarity": 0,
    "Description": "Is that island moving!?",
    "Sprite": "card_continental_turtle.png",
    "Value": 3,
    "CardClass": 2
  },
  {
    "ID": 31,
    "Name": "Insect Queen",
    "Rarity": 0,
    "Description": "Legs for days.",
    "Sprite": "card_insect_queen.png",
    "Value": 3,
    "CardClass": 2
  },
  {
    "ID": 32,
    "Name": "Siege Crab",
    "Rarity": 0,
    "Description": "Knock Knock.",
    "Sprite": "card_siege_crab.png",
    "Value": 4,
    "CardClass": 2
  },
  {
    "ID": 33,
    "Name": "Siege Worm",
    "Rarity": 0,
    "Description": "Why is the ground shaking?",
    "Sprite": "card_siege_worm.png",
    "Value": 4,
    "CardClass": 2
  },
  {
    "ID": 34,
    "Name": "Mummy Princess",
    "Rarity": 1,
    "Description": "She may be 3000 years\nold, but that won't slow\nher down.",
    "Sprite": "card_mummy_princess.png",
    "Value": 3,
    "CardClass": 0,
    "EnemyAnthem": -1
  },
  {
    "ID": 35,
    "Name": "Dryad",
    "Rarity": 1,
    "Description": "She's a dryad,\nshe fights for the trees.",
    "Sprite": "card_dryad.png",
    "Value": 3,
    "CardClass": 0
  },
  {
    "ID": 36,
    "Name": "Ice Titan",
    "Rarity": 1,
    "Description": "Titan made from pure ice.",
    "Sprite": "card_ice_titan.png",
    "Value": 4,
    "CardClass": 0,
    "EnemyAnthem": -1
  },
  {
    "ID": 37,
    "Name": "Elf Rogue",
    "Rarity": 1,
    "Description": "Swift and deadly.",
    "Sprite": "card_elf_rogue.png",
    "Value": 3,
    "CardClass": 0,
    "Destroy": true
  },
  {
    "ID": 38,
    "Name": "Earth Spirit",
    "Rarity": 1,
    "Description": "Just a bush, right?",
    "Sprite": "card_earth_spirit.png",
    "Value": 3,
    "CardClass": 1,
    "AllyAnthem": 1
  },
  {
    "ID": 39,
    "Name": "Elf Knight",
    "Rarity": 1,
    "Description": "An elf who defends\nthe Kingdom.",
    "Sprite": "card_elf_knight.png",
    "Value": 3,
    "CardClass": 1
  },
  {
    "ID": 40,
    "Name": "Fire Spirit",
    "Rarity": 1,
    "Description": "She has a temper.",
    "Sprite": "card_fire_spirit.png",
    "Value": 4,
    "CardClass": 1,
    "Destroy": true
  },
  {
    "ID": 41,
    "Name": "Royal Healer",
    "Rarity": 1,
    "Description": "A happy sight\non the battlefield.",
    "Sprite": "card_royal_healer.png",
    "Value": 3,
    "CardClass": 1,
    "AllyAnthem": 1
  },
  {
    "ID": 42,
    "Name": "Shiva, Queen of Ice",
    "Rarity": 1,
    "Description": "Cool as... ice.",
    "Sprite": "card_shiva.png",
    "Value": 4,
    "CardClass": 1,
    "EnemyAnthem": -1
  },
  {
    "ID": 43,
    "Name": "Slime Apprentice",
    "Rarity": 1,
    "Description": "He's still learning.",
    "Sprite": "card_slime_apprentice.png",
    "Value": 3,
    "CardClass": 1
  },
  {
    "ID": 44,
    "Name": "Volcanic Maiden",
    "Rarity": 1,
    "Description": "Hot to the touch!",
    "Sprite": "card_volcanic_maiden.png",
    "Value": 4,
    "CardClass": 1
  },
  {
    "ID": 45,
    "Name": "Dark Ant Queen",
    "Rarity": 1,
    "Description": "Her subjects number\nin the trillions.",
    "Sprite": "card_dark_ant_queen.png",
    "Value": 6,
    "CardClass": 2,
    "EnemyAnthem": -1
  },
  {
    "ID": 46,
    "Name": "Goddess",
    "Rarity": 1,
    "Description": "Divine intervention.",
    "Sprite": "card_goddess.png",
    "Value": 6,
    "CardClass": 2
  },
  {
    "ID": 47,
    "Name": "Ice Maiden",
    "Rarity": 1,
    "Description": "Freeze them solid.",
    "Sprite": "card_ice_maiden.png",
    "Value": 6,
    "CardClass": 2,
    "Destroy": true
  },
  {
    "ID": 48,
    "Name": "Libra",
    "Rarity": 1,
    "Description": "Rule and Law will prevail.",
    "Sprite": "card_libra.png",
    "Value": 7,
    "CardClass": 2,
    "AllyAnthem": 1
  },
  {
    "ID": 49,
    "Name": "Light Maiden",
    "Rarity": 1,
    "Description": "Anyone have a pair\nof sunglasses?",
    "Sprite": "card_light_maiden.png",
    "Value": 6,
    "CardClass": 2
  },
  {
    "ID": 50,
    "Name": "Elf Princess Eliza",
    "Rarity": 2,
    "Description": "Princess of the elves.",
    "Sprite": "card_elf_princess.png",
    "Value": 5,
    "CardClass": 1,
    "AllyAnthem": 2
  },
  {
    "ID": 51,
    "Name": "Jack",
    "Rarity": 2,
    "Description": "This is Halloween.",
    "Sprite": "card_jack.png",
    "Value": 7,
    "CardClass": 0,
    "EnemyAnthem": -2
  },
  {
    "ID": 52,
    "Name": "Sun Goddess",
    "Rarity": 2,
    "Description": "Don't stare too long.",
    "Sprite": "card_sun_goddess.png",
    "Value": 11,
    "CardClass": 0
  },
  {
    "ID": 53,
    "Name": "Thanatos",
    "Rarity": 2,
    "Description": "Destroyer of worlds.",
    "Sprite": "card_thanatos.png",
    "Value": 10,
    "CardClass": 0
  },
  {
    "ID": 54,
    "Name": "Tiamat",
    "Rarity": 2,
    "Description": "Half dragon,\nhalf human,\nall fight.",
    "Sprite": "card_tiamat.png",
    "Value": 8,
    "CardClass": 0,
    "Destroy": true
  },
  {
    "ID": 55,
    "Name": "Time Warrior",
    "Rarity": 2,
    "Description": "Paradoxes be damned!",
    "Sprite": "card_time_warrior.png",
    "Value": 7,
    "CardClass": 0
  },
  {
    "ID": 56,
    "Name": "Banshee",
    "Rarity": 2,
    "Description": "A scream in the night.",
    "Sprite": "card_banshee.png",
    "Value": 7,
    "CardClass": 1,
    "Destroy": true
  },
  {
    "ID": 57,
    "Name": "Dark Elf Healer",
    "Rarity": 2,
    "Description": "You'll be healed,\nbut at what cost?",
    "Sprite": "card_dark_elf_healer.png",
    "Value": 8,
    "CardClass": 1,
    "AllyAnthem": 2
  },
  {
    "ID": 58,
    "Name": "Elf Spellcaster",
    "Rarity": 2,
    "Description": "Strongest spellcaster\nin the land.",
    "Sprite": "card_elf_spellcaster.png",
    "Value": 8,
    "CardClass": 1,
    "Destroy": true
  },
  {
    "ID": 59,
    "Name": "Arcane King",
    "Rarity": 2,
    "Description": "Master of the dark,\ndealer of the arcane,\nevil incarnate.",
    "Sprite": "card_arcane_king.png",
    "Value": 11,
    "CardClass": 2,
    "EnemyAnthem": -2
  },
  {
    "ID": 60,
    "Name": "Huanglong",
    "Rarity": 2,
    "Description": "Ruler of dragons.",
    "Sprite": "card_huanglong.png",
    "Value": 11,
    "CardClass": 2,
    "Destroy": true
  },
  {
    "ID": 61,
    "Name": "The Originator",
    "Rarity": 2,
    "Description": "Creator of all.",
    "Sprite": "card_the_originator.png",
    "Value": 20,
    "CardClass": 2,
    "AllyAnthem": 3,
    "Destroy": true
  }
]